{
    "code": "DMSI0000",
    "data": {
        "devices": [
            {
                "id": "676ad371b3ed46249bbfd3a07c13b6a6",
                "sn": "CLH8224760268",
                "mac": null,
                "deviceType": "acc",
                "fwVersion": null,
                "deviceAlias": "Testing GF",
                "initialState": 0,
                "deviceModel": "v5l",
                "siteId": "8a82945191c175a00191e732117205c5",
                "ip": null,
                "timeZone": "+05:30",
                "zoneId": null,
                "status": 0,
                "protocolType": "PUSH",
                "clientId": "024f0b2e437e42819f4baae320555f93",
                "registrationDevice": false,
                "checkIn": false,
                "checkOut": false,
                "enable": true,
                "createdAt": "2025-04-08 13:07:06",
                "updatedAt": "2025-04-08 13:07:06",
                "dbsId": null,
                "parameters": null,
                "companyId": "8a82944d91ccbb340191e5037d12020f",
                "machineType": null,
                "lockCount": null,
                "verifyStyles": null,
                "accSupportFunlist": null,
                "siteName": "ZK India"
            },
            {
                "id": "2a005acd5cb247689134a9617379c3f3",
                "sn": "TH40623490200",
                "mac": "dc:99:fe:0f:56:37",
                "deviceType": "acc",
                "fwVersion": "ZAM210-NF50VG-Ver2.2.4",
                "deviceAlias": "GF-Entrance",
                "initialState": 1,
                "deviceModel": "OmniAC30",
                "siteId": "8a82945191c175a00191e732117205c5",
                "ip": "10.10.40.93",
                "timeZone": "+05:30",
                "zoneId": null,
                "status": 0,
                "protocolType": "PUSH",
                "clientId": "024f0b2e437e42819f4baae320555f93",
                "registrationDevice": false,
                "checkIn": false,
                "checkOut": false,
                "enable": true,
                "createdAt": "2025-04-07 12:44:35",
                "updatedAt": "2025-04-08 09:58:39",
                "dbsId": null,
                "parameters": {
                    "DisableUserFunOn": "1",
                    "~REXInputFunOn": "0",
                    "~MaxFaceCount": "10000",
                    "~IsOnlyRFMachine": "0",
                    "Token": "10dceaa8fa2981223988dcb23d863aba",
                    "NetMask": "255.255.255.0",
                    "MultiBioVersion": "0:0:0:0:0:0:0:0:0:60.1:32.2",
                    "~OEMVendor": "Armatura LLc",
                    "NetConnectMode": "0",
                    "AuxInCount": "1",
                    "~Ext485ReaderFunOn": "1",
                    "SimpleEventType": "1",
                    "MultiBioDataSupport": "0:0:0:0:0:0:0:0:0:1:1",
                    "MultiBioDataCount": "0:0:0:0:0:0:0:0:0:188:0",
                    "BleCardFunOn": "0",
                    "MAC": "dc:99:fe:0f:56:37",
                    "Realtime": "1",
                    "StopAllVerify": "0",
                    "IclockSvrFun": "1",
                    "FPCount": "0",
                    "FaceFunOn": "1",
                    "ServerVersion": "3.0.1",
                    "FaceVersion": "60",
                    "DelayDay": "0",
                    "~MaxAttLogCount": "100",
                    "MaskDetectionFunOn": "1",
                    "NewWarningEventTypes": "",
                    "enabled": "true",
                    "PushVersion": "Ver 3.0.4S-20240905",
                    "BioPhotoFun": "1",
                    "~ReaderCFGFunOn": "0",
                    "MachineTZFunOn": "1",
                    "DelAllLossCardFunOn": "0",
                    "~Platform": "ZAM210_TFT",
                    "VisilightFun": "1",
                    "SN": "TH40623490200",
                    "~TimeAPBFunOn": "0",
                    "IRTempDetectionFunOn": "0",
                    "FvVersion": "3",
                    "AuxOutCount": "0",
                    "PvFunOn": "0",
                    "MachineType": "1",
                    "LivePvFunOn": "1",
                    "LogIDFunOn": "1",
                    "CommType": "3",
                    "~MaxFvCount": "10",
                    "QRCodeDecryptFunList": "010",
                    "registryCode": "yVI2CJyipJ",
                    "AutoClearDay": "0",
                    "ServerName": "SDMS",
                    "IPAddress": "10.10.40.93",
                    "TransTimes": "00:00\t14:00",
                    "TransactionCount": "0",
                    "~CardFormatFunOn": "0",
                    "TransInterval": "1",
                    "PvVersion": "12",
                    "~LossCardFunOn": "0",
                    "IpPort": "80",
                    "ReaderCount": "2",
                    "MaxMultiBioDataCount": "0:0:0:0:0:0:0:0:0:10000:5000",
                    "~MaxPvCount": "5000",
                    "GATEIPAddress": "10.10.40.1",
                    "SubcontractingUpgradeFunOn": "1",
                    "~SupAuthrizeFunOn": "0",
                    "TimeoutSec": "30",
                    "RequestDelay": "2",
                    "DateFmtFunOn": "1",
                    "MaxMultiBioPhotoCount": "0:0:0:0:0:0:0:0:0:10000:5000",
                    "NewNormalEventTypes": "",
                    "MultiCardInterTimeFunOn": "1",
                    "AutoServerFunOn": "1",
                    "FingerFunOn": "0",
                    "FWVersion": "ZAM210-NF50VG-Ver2.2.4",
                    "VerifyStyles": "9d88060e",
                    "IsConfigACMSKey": "1",
                    "ErrorDelay": "60",
                    "~DSTF": "1",
                    "DeviceType": "acc",
                    "AccSupportFunList": "001001101010100000000000000000000010001110100000000000000000000000000000000000000000000000000000",
                    "MaxPackageSize": "2048000",
                    "~CtlAllRelayFunOn": "0",
                    "OverallAntiFunOn": "0",
                    "Reader1IOState": "1",
                    "TransTables": "User\tTransaction",
                    "~MaxUserPhotoCount": "10000",
                    "PvCount": "0",
                    "~MaxUserCount": "500",
                    "~SerialNumber": "TH40623490200",
                    "SessionID": "0affd9fffe780145-00000001-00021a43-5adafa949ad9bebe-ca1f1735",
                    "~ZKFPVersion": "10",
                    "RoomStatus": "0",
                    "UserCount": "197",
                    "~MaxFingerCount": "30",
                    "FvCount": "0",
                    "DeleteAndFunOn": "0",
                    "NewErrorEventTypes": "",
                    "FirstDelayDay": "0",
                    "CameraOpen": "1",
                    "IsSupportQRcode": "1",
                    "MultiBioPhotoCount": "0:0:0:0:0:0:0:0:0:189:0",
                    "FvFunOn": "0",
                    "Language": "69",
                    "UserPicURLFunOn": "1",
                    "IsSupportNFC": "0",
                    "~MaxBioPhotoCount": "10000",
                    "~MaxUserFingerCount": "10",
                    "MultiBioPhotoSupport": "0:0:0:0:0:0:0:0:0:1:1",
                    "FaceCount": "188",
                    "~RelayStateFunOn": "1",
                    "FPVersion": "10",
                    "deviceID": "8a828adf95efcd21019610481cd70b04",
                    "~DeviceName": "OmniAC30",
                    "QRCodeEnable": "1",
                    "LockCount": "1",
                    "MThreshold": "35",
                    "wgRuleVer": "2.0",
                    "EventTypes": "FF0FF03DBA26018033000000F00000000000000000000000007703F007060000",
                    "~ReaderLinkageFunOn": "0",
                    "PhotoFunOn": "1",
                    "FirmVer": "ZAM210-NF50VG-Ver2.2.4"
                },
                "companyId": "8a82944d91ccbb340191e5037d12020f",
                "machineType": 1,
                "lockCount": 1,
                "verifyStyles": "9d88060e",
                "accSupportFunlist": "001001101010100000000000000000000010001110100000000000000000000000000000000000000000000000000000",
                "siteName": "ZK India",
                "bioDataSupports": {
                    "face": {
                        "enabled": false
                    },
                    "palmVein": {
                        "enabled": false
                    },
                    "visibleLightPalm": {
                        "index": 10,
                        "enabled": true
                    },
                    "visibleLightFace": {
                        "index": 9,
                        "enabled": true
                    },
                    "fingerPrint": {
                        "enabled": false
                    },
                    "fingerVein": {
                        "enabled": false
                    }
                }
            },
            {
                "id": "15979b7cf86140dca0604346646e8a8a",
                "sn": "COPP223060002",
                "mac": "00:17:61:12:dd:da",
                "deviceType": "acc",
                "fwVersion": "ZAM180-NF50VA-3.0.36-OCM-215-Ver1.0.1",
                "deviceAlias": "SF-Discussion-room-5",
                "initialState": 1,
                "deviceModel": "SpeedFace-V5L[QR]",
                "siteId": "8a82945191c175a00191e732117205c5",
                "ip": "10.10.40.71",
                "timeZone": "+05:30",
                "zoneId": "",
                "status": 1,
                "protocolType": "PUSH",
                "clientId": "024f0b2e437e42819f4baae320555f93",
                "registrationDevice": false,
                "checkIn": false,
                "checkOut": false,
                "enable": true,
                "createdAt": "2025-03-05 11:48:50",
                "updatedAt": "2025-04-08 02:06:36",
                "dbsId": null,
                "parameters": {
                    "DisableUserFunOn": "0",
                    "~REXInputFunOn": "0",
                    "~MaxFaceCount": "6000",
                    "~IsOnlyRFMachine": "0",
                    "Token": "3cec094d6c51c9b7cada12cd07f27066",
                    "NetMask": "255.255.255.0",
                    "MultiBioVersion": "0:10.0:0:0:0:0:0:0:0:39.1",
                    "~OEMVendor": "ZKTECO CO.",
                    "NetConnectMode": "0",
                    "AuxInCount": "1",
                    "~Ext485ReaderFunOn": "0",
                    "SimpleEventType": "1",
                    "MultiBioDataSupport": "0:1:0:0:0:0:0:0:0:1",
                    "MultiBioDataCount": "0:0:0:0:0:0:0:0:0:273",
                    "MAC": "00:17:61:12:dd:da",
                    "Realtime": "1",
                    "StopAllVerify": "0",
                    "IclockSvrFun": "1",
                    "FPCount": "0",
                    "FaceFunOn": "1",
                    "ServerVersion": "3.0.1",
                    "FaceVersion": "39",
                    "DelayDay": "0",
                    "~MaxAttLogCount": "20",
                    "MaskDetectionFunOn": "0",
                    "NewWarningEventTypes": "",
                    "enabled": "true",
                    "PushVersion": "Ver 2.0.33S-20220228",
                    "BioPhotoFun": "1",
                    "~ReaderCFGFunOn": "0",
                    "MachineTZFunOn": "1",
                    "DelAllLossCardFunOn": "0",
                    "~Platform": "ZAM180_TFT",
                    "VisilightFun": "1",
                    "SN": "COPP223060002",
                    "~TimeAPBFunOn": "0",
                    "IRTempDetectionFunOn": "0",
                    "FvVersion": "3",
                    "AuxOutCount": "0",
                    "PvFunOn": "0",
                    "MachineType": "1",
                    "LogIDFunOn": "1",
                    "CommType": "3",
                    "~MaxFvCount": "10",
                    "registryCode": "tvNCvwJyzO",
                    "AutoClearDay": "0",
                    "ServerName": "SDMS",
                    "IPAddress": "10.10.40.71",
                    "TransTimes": "00:00\t14:00",
                    "TransactionCount": "0",
                    "~CardFormatFunOn": "0",
                    "TransInterval": "1",
                    "PvVersion": "12",
                    "~LossCardFunOn": "0",
                    "IpPort": "80",
                    "ReaderCount": "2",
                    "MaxMultiBioDataCount": "0:10000:0:0:0:0:0:0:0:6000",
                    "~MaxPvCount": "3000",
                    "GATEIPAddress": "10.10.40.1",
                    "SubcontractingUpgradeFunOn": "1",
                    "~SupAuthrizeFunOn": "0",
                    "TimeoutSec": "30",
                    "RequestDelay": "2",
                    "DateFmtFunOn": "0",
                    "MaxMultiBioPhotoCount": "0:0:0:0:0:0:0:0:0:6000",
                    "NewNormalEventTypes": "",
                    "MultiCardInterTimeFunOn": "1",
                    "AutoServerFunOn": "1",
                    "FingerFunOn": "1",
                    "FWVersion": "ZAM180-NF50VA-3.0.36-OCM-215-Ver1.0.1",
                    "VerifyStyles": "0fa31300",
                    "ErrorDelay": "60",
                    "~DSTF": "0",
                    "DeviceType": "acc",
                    "AccSupportFunList": "001000001010100000000000000000000010001110100000000000000000000000000000000000000000000000000000",
                    "MaxPackageSize": "2048000",
                    "~CtlAllRelayFunOn": "0",
                    "OverallAntiFunOn": "0",
                    "Reader1IOState": "1",
                    "TransTables": "User\tTransaction",
                    "~MaxUserPhotoCount": "10000",
                    "PvCount": "0",
                    "~MaxUserCount": "100",
                    "~SerialNumber": "COPP223060002",
                    "SessionID": "0affd9fffe780145-00000001-00021a43-5adafa949ad9bebe-ca1f1735",
                    "~ZKFPVersion": "10",
                    "RoomStatus": "0",
                    "UserCount": "285",
                    "~MaxFingerCount": "100",
                    "FvCount": "0",
                    "DeleteAndFunOn": "0",
                    "NewErrorEventTypes": "",
                    "FirstDelayDay": "0",
                    "CameraOpen": "1",
                    "IsSupportQRcode": "1",
                    "MultiBioPhotoCount": "0:0:0:0:0:0:0:0:0:273",
                    "FvFunOn": "0",
                    "Language": "69",
                    "UserPicURLFunOn": "1",
                    "IsSupportNFC": "0",
                    "~MaxBioPhotoCount": "6000",
                    "~MaxUserFingerCount": "10",
                    "MultiBioPhotoSupport": "0:0:0:0:0:0:0:0:0:1",
                    "FaceCount": "273",
                    "~RelayStateFunOn": "1",
                    "FPVersion": "10",
                    "deviceID": "8a829416954ccbe7019566232a1410ef",
                    "~DeviceName": "SpeedFace-V5L[QR]",
                    "QRCodeEnable": "1",
                    "LockCount": "1",
                    "MThreshold": "35",
                    "EventTypes": "FF0FF03DBA26018033060000F00000000000000000000000007703F007860100",
                    "~ReaderLinkageFunOn": "0",
                    "PhotoFunOn": "1",
                    "FirmVer": "ZAM180-NF50VA-3.0.36-OCM-215-Ver1.0.1"
                },
                "companyId": "8a82944d91ccbb340191e5037d12020f",
                "machineType": 1,
                "lockCount": 1,
                "verifyStyles": "0fa31300",
                "accSupportFunlist": "001000001010100000000000000000000010001110100000000000000000000000000000000000000000000000000000",
                "siteName": "ZK India",
                "bioDataSupports": {
                    "face": {
                        "enabled": false
                    },
                    "palmVein": {
                        "enabled": false
                    },
                    "visibleLightPalm": {
                        "enabled": false
                    },
                    "visibleLightFace": {
                        "index": 9,
                        "enabled": true
                    },
                    "fingerPrint": {
                        "index": 1,
                        "enabled": true
                    },
                    "fingerVein": {
                        "enabled": false
                    }
                }
            }
        ],
        "totalPages": 13,
        "totalCount": 38,
        "currentPage": 1
    },
    "mid": "13117f381b354a00b5d8e86297c09a1e"
}

